<svg width="80" height="80" viewBox="0 0 80 80" fill="none" xmlns="http://www.w3.org/2000/svg">
<g filter="url(#filter0_b_186_116)">
<rect width="80" height="80" fill="url(#paint0_linear_186_116)"/>
<path d="M40 70C56.5685 70 70 56.5685 70 40C70 23.4315 56.5685 10 40 10C23.4315 10 10 23.4315 10 40C10 56.5685 23.4315 70 40 70Z" fill="#2D2D2D"/>
<path fill-rule="evenodd" clip-rule="evenodd" d="M50.404 25.444L40 19.375L29.596 25.444L33.4096 27.6686L40 23.8419L46.5904 27.6686L50.404 25.444ZM43.8032 29.2945L40 27.0862L36.1968 29.2945L40 31.513L43.8032 29.2945ZM33.4063 30.9147L40 34.761L46.5937 30.9147L50.3216 33.0793V37.4731L43.7682 41.296V48.8508L40 51.0388L36.2318 48.8508V41.296L29.6784 37.4731V33.0793L33.4063 30.9147ZM26.8932 35.8484V31.4522L30.619 29.2888L26.8119 27.068L23.125 29.2188V33.6503L26.8932 35.8484ZM23.125 36.8984L26.8932 39.0965V46.6728L33.4466 50.4779V54.9272L23.125 48.9062V36.8984ZM36.2318 56.5519L40 58.75L43.7682 56.5519V52.0951L40 54.2831L36.2318 52.0951V56.5519ZM33.4466 47.2336L29.6784 45.0457V40.7212L33.4466 42.9193V47.2336ZM46.5534 42.9193L50.3216 40.7212V45.0457L46.5534 47.2336V42.9193ZM53.1068 46.6728L46.5534 50.4779V54.9272L56.875 48.9062V36.8984L53.1068 39.0965V46.6728ZM56.875 29.2188V33.6503L53.1068 35.8484V31.4522L49.381 29.2888L53.1881 27.068L56.875 29.2188Z" fill="#F2C21D"/>
<rect x="0.5" y="0.5" width="79" height="79" stroke="url(#paint1_linear_186_116)"/>
</g>
<defs>
<filter id="filter0_b_186_116" x="-50" y="-50" width="180" height="180" filterUnits="userSpaceOnUse" color-interpolation-filters="sRGB">
<feFlood flood-opacity="0" result="BackgroundImageFix"/>
<feGaussianBlur in="BackgroundImage" stdDeviation="25"/>
<feComposite in2="SourceAlpha" operator="in" result="effect1_backgroundBlur_186_116"/>
<feBlend mode="normal" in="SourceGraphic" in2="effect1_backgroundBlur_186_116" result="shape"/>
</filter>
<linearGradient id="paint0_linear_186_116" x1="40" y1="0" x2="40" y2="80" gradientUnits="userSpaceOnUse">
<stop stop-color="#48FFDE" stop-opacity="0.17"/>
<stop offset="0.458333" stop-color="#0FD4FF" stop-opacity="0.15"/>
<stop offset="1" stop-color="#96ECFF" stop-opacity="0.48"/>
</linearGradient>
<linearGradient id="paint1_linear_186_116" x1="40" y1="0" x2="40" y2="80" gradientUnits="userSpaceOnUse">
<stop stop-color="white"/>
<stop offset="1" stop-color="white" stop-opacity="0"/>
</linearGradient>
</defs>
</svg>
