<svg width="80" height="80" viewBox="0 0 80 80" fill="none" xmlns="http://www.w3.org/2000/svg">
<g filter="url(#filter0_b_186_194)">
<rect width="80" height="80" fill="url(#paint0_linear_186_194)"/>
<path d="M40 70C56.5685 70 70 56.5685 70 40C70 23.4315 56.5685 10 40 10C23.4315 10 10 23.4315 10 40C10 56.5685 23.4315 70 40 70Z" fill="#F7931A"/>
<path d="M53.185 36.2875C53.7737 32.3575 50.7794 30.2444 46.6881 28.8344L48.0156 23.5094L44.7756 22.7031L43.4819 27.8875C42.6306 27.6737 41.7569 27.475 40.885 27.2762L42.1881 22.0581L38.9481 21.25L37.6206 26.5731C36.9156 26.4119 36.2219 26.2544 35.5506 26.0856L35.5544 26.0687L31.0844 24.9531L30.2219 28.4144C30.2219 28.4144 32.6275 28.9656 32.5769 28.9994C33.8894 29.3275 34.1256 30.1956 34.0863 30.8856L32.575 36.9512C32.665 36.9737 32.7813 37.0075 32.9125 37.0581L32.5694 36.9737L30.4506 45.4712C30.2894 45.8687 29.8825 46.4669 28.9638 46.24C28.9975 46.2869 26.6088 45.6531 26.6088 45.6531L25 49.3619L29.2188 50.4138C30.0025 50.6106 30.7712 50.8169 31.5269 51.01L30.1863 56.395L33.4244 57.2012L34.7519 51.8762C35.6369 52.1144 36.4956 52.3356 37.3356 52.5456L36.0119 57.8481L39.2519 58.6544L40.5925 53.2806C46.12 54.3269 50.275 53.905 52.0244 48.9062C53.4344 44.8825 51.955 42.5594 49.0469 41.0463C51.1656 40.5588 52.7594 39.1656 53.185 36.2875ZM45.7788 46.6713C44.7794 50.6969 38.0013 48.52 35.8038 47.9744L37.585 40.84C39.7825 41.3894 46.8269 42.475 45.7788 46.6713ZM46.7819 36.2294C45.8688 39.8913 40.2288 38.0294 38.4006 37.5738L40.0131 31.105C41.8412 31.5606 47.7344 32.41 46.7819 36.2294Z" fill="white"/>
<rect x="0.5" y="0.5" width="79" height="79" stroke="url(#paint1_linear_186_194)"/>
</g>
<defs>
<filter id="filter0_b_186_194" x="-50" y="-50" width="180" height="180" filterUnits="userSpaceOnUse" color-interpolation-filters="sRGB">
<feFlood flood-opacity="0" result="BackgroundImageFix"/>
<feGaussianBlur in="BackgroundImage" stdDeviation="25"/>
<feComposite in2="SourceAlpha" operator="in" result="effect1_backgroundBlur_186_194"/>
<feBlend mode="normal" in="SourceGraphic" in2="effect1_backgroundBlur_186_194" result="shape"/>
</filter>
<linearGradient id="paint0_linear_186_194" x1="40" y1="0" x2="40" y2="80" gradientUnits="userSpaceOnUse">
<stop stop-color="#48FFDE" stop-opacity="0.17"/>
<stop offset="0.458333" stop-color="#0FD4FF" stop-opacity="0.15"/>
<stop offset="1" stop-color="#96ECFF" stop-opacity="0.48"/>
</linearGradient>
<linearGradient id="paint1_linear_186_194" x1="40" y1="0" x2="40" y2="80" gradientUnits="userSpaceOnUse">
<stop stop-color="white"/>
<stop offset="1" stop-color="white" stop-opacity="0"/>
</linearGradient>
</defs>
</svg>
