<svg width="80" height="80" viewBox="0 0 80 80" fill="none" xmlns="http://www.w3.org/2000/svg">
<g filter="url(#filter0_b_186_91)">
<rect width="80" height="80" fill="url(#paint0_linear_186_91)"/>
<path d="M10 40C10 23.4315 23.4315 10 40 10C56.5685 10 70 23.4315 70 40C70 56.5685 56.5685 70 40 70C23.4315 70 10 56.5685 10 40Z" fill="url(#paint1_linear_186_91)"/>
<path d="M59.3675 37.3698C59.0463 35.1452 58.3058 32.9832 57.1638 30.973C56.6106 30.0081 55.9861 29.1057 55.2902 28.2749C54.621 27.4708 53.8894 26.7292 53.1043 26.0592C52.337 25.407 51.5251 24.8173 50.6686 24.2991C49.8299 23.7899 48.9467 23.3432 48.0366 22.968L48.7593 21.8333L44.5749 22.8786L45.9756 26.2111L46.8857 24.7816C47.653 25.13 48.3846 25.5231 49.0716 25.9788C49.7764 26.4433 50.4455 26.9526 51.0612 27.5244C51.6946 28.1051 52.2835 28.7394 52.8099 29.4274C53.3541 30.1332 53.8448 30.8926 54.2641 31.7145C55.1028 33.3405 55.6203 35.0738 55.8076 36.8606C56.0129 38.7368 55.8523 40.6576 55.3259 42.5159C54.7816 44.4636 53.8448 46.3308 52.5333 48.0015C51.1772 49.7258 49.4463 51.2178 47.3853 52.3346L45.2351 45.2766C45.4314 45.1962 45.6277 45.1158 45.8061 45.0443C45.9846 44.9639 46.163 44.8835 46.3325 44.8031C46.502 44.7227 46.6626 44.6423 46.8143 44.5529C46.966 44.4725 47.1087 44.3832 47.2426 44.3028C47.5459 44.1151 47.8225 43.9097 48.0812 43.6863C48.34 43.4629 48.563 43.2217 48.7682 42.9626C48.9734 42.7035 49.1519 42.4266 49.3125 42.1407C49.4641 41.8548 49.598 41.551 49.705 41.2294C49.8121 40.9078 49.8835 40.5861 49.9281 40.2645C49.9727 39.9429 49.9816 39.6123 49.9638 39.2818C49.9459 38.9512 49.8924 38.6206 49.8121 38.2901C49.7318 37.9595 49.6247 37.6289 49.4909 37.2894C49.2589 36.7087 48.9645 36.2084 48.6255 35.7706C48.2864 35.3418 47.8849 34.9844 47.4388 34.6807C46.9928 34.3858 46.4931 34.1535 45.931 33.9838C45.3779 33.814 44.7712 33.7068 44.102 33.6622C44.5035 33.3673 44.8426 33.0546 45.1013 32.7241C45.36 32.4024 45.5474 32.0629 45.6634 31.7145C45.7794 31.3661 45.8329 31.0087 45.8061 30.6335C45.7883 30.2672 45.6991 29.8919 45.5474 29.4988C45.4671 29.2933 45.3779 29.1057 45.2797 28.927C45.1816 28.7484 45.0656 28.5786 44.9407 28.4178C44.8158 28.257 44.682 28.114 44.5303 27.9711C44.3786 27.8371 44.218 27.7031 44.0485 27.5869C44.0128 27.5601 43.986 27.5422 43.9504 27.5154C43.9147 27.4976 43.8879 27.4708 43.8522 27.4529C43.8165 27.435 43.7808 27.4082 43.7452 27.3904C43.7095 27.3725 43.6738 27.3457 43.6381 27.3278C43.415 27.2028 43.192 27.0955 42.9689 27.0062C42.7459 26.9169 42.5228 26.8454 42.2909 26.7918C42.0678 26.7382 41.8359 26.7024 41.6128 26.6756C41.3808 26.6578 41.1578 26.6488 40.9258 26.6667C40.8366 26.6756 40.7385 26.6756 40.6403 26.6935C40.5422 26.7024 40.4351 26.7114 40.328 26.7292C40.221 26.7382 40.105 26.756 39.989 26.7739C39.873 26.7918 39.7481 26.8096 39.6232 26.8275L38.9273 24.5136L36.8663 25.0317L37.4641 27.2742H37.4552C37.4106 27.2832 37.366 27.2921 37.3213 27.31C37.2767 27.3189 37.2321 27.3368 37.1786 27.3457C37.134 27.3546 37.0804 27.3725 37.0358 27.3814C36.9912 27.3904 36.9377 27.4082 36.8931 27.4172L35.5816 27.7477L34.3325 22.3783C34.1719 22.4319 34.0113 22.4766 33.8507 22.5302C33.6901 22.5838 33.5295 22.6374 33.3778 22.6999C33.2172 22.7535 33.0656 22.8161 32.905 22.8786C32.7533 22.9412 32.5927 23.0037 32.441 23.0662C31.7273 23.37 31.0403 23.7095 30.3711 24.0847C29.702 24.4689 29.0507 24.8888 28.4172 25.3444C27.7748 25.8001 27.1681 26.3004 26.5882 26.8454C25.9994 27.3904 25.4373 27.9711 24.9109 28.5965C24.2596 29.3738 23.6618 30.1957 23.1443 31.0534C22.609 31.9379 22.154 32.8581 21.7704 33.814C21.3778 34.7968 21.0655 35.8153 20.8425 36.8695C20.6105 37.9506 20.4856 39.0673 20.4499 40.2109C20.4231 41.3277 20.4945 42.4445 20.673 43.5434C20.8514 44.678 21.1369 45.7858 21.5384 46.8758C21.9488 47.9926 22.4663 49.0825 23.1087 50.1189C23.7689 51.191 24.5451 52.2006 25.4373 53.1476L23.7689 55.6313L29.9429 54.0678L29.3273 47.3404L27.7392 49.7079C27.0076 48.9843 26.3652 48.1981 25.812 47.3672C25.2767 46.5542 24.8217 45.7054 24.4648 44.8299C24.1079 43.9722 23.8403 43.0877 23.6618 42.1764C23.4834 41.2919 23.3852 40.3896 23.3763 39.4872C23.3495 37.7897 23.6083 36.1548 24.099 34.636C24.5719 33.1708 25.2499 31.7949 26.1064 30.5531C26.9273 29.338 27.9265 28.2391 29.0596 27.2921C30.1659 26.3629 31.415 25.5589 32.7801 24.9245L33.4224 28.2838L28.8455 29.4274L29.131 32.0361L31.3882 31.4733L33.2797 44.2134L30.5496 44.9014L31.0135 49.0736L37.0983 47.5369L37.9459 51.9593L40.9526 51.1999L39.9444 46.8222L41.6931 46.3844C41.7556 46.3666 41.818 46.3487 41.8805 46.3398C41.9429 46.3219 42.0054 46.304 42.0678 46.2951C42.1303 46.2772 42.1927 46.2593 42.2552 46.2415C42.3176 46.2236 42.3801 46.2057 42.4425 46.1879L44.4054 53.6032L45.6277 58.2222C45.6366 58.2222 45.6366 58.2222 45.6455 58.2133C45.9221 58.1329 46.1898 58.0435 46.4574 57.9452C46.7251 57.847 46.9927 57.7487 47.2515 57.6415C47.5102 57.5343 47.769 57.4271 48.0277 57.3109C48.2864 57.1948 48.5362 57.0786 48.7861 56.9536C51.4805 55.6045 53.7288 53.7372 55.4686 51.5305C57.1459 49.4131 58.3147 47.0277 58.9571 44.535C59.5816 42.1675 59.7155 39.7374 59.3675 37.3698ZM37.0448 34.0195L36.1793 30.2672L37.366 29.9723C37.6336 29.9098 37.8834 29.8473 38.1154 29.8115C38.3474 29.7669 38.5615 29.7401 38.7578 29.7311C38.9541 29.7133 39.1325 29.7133 39.2931 29.7222C39.4537 29.7311 39.5964 29.7579 39.7213 29.7937C39.8463 29.8294 39.9622 29.883 40.0693 29.9455C40.1764 30.0081 40.2745 30.0974 40.3637 30.1957C40.4529 30.294 40.5332 30.4101 40.5957 30.5352C40.6671 30.6692 40.7206 30.8122 40.7741 30.973C40.8277 31.1517 40.8634 31.3214 40.8812 31.4822C40.899 31.643 40.899 31.7949 40.8812 31.9379C40.8634 32.0808 40.8277 32.2148 40.7652 32.3399C40.7117 32.465 40.6314 32.5722 40.5422 32.6794C40.444 32.7866 40.337 32.876 40.2031 32.9742C40.0693 33.0636 39.9176 33.1529 39.7481 33.2423C39.5786 33.3227 39.3823 33.4031 39.1771 33.4745C38.963 33.546 38.7399 33.6175 38.4901 33.68L37.0448 34.0195ZM43.9593 39.9071C43.9414 40.1037 43.9058 40.2913 43.8433 40.4611C43.7808 40.6308 43.6916 40.7916 43.5756 40.9256C43.4597 41.0686 43.3169 41.2026 43.1385 41.3366C42.96 41.4706 42.7548 41.5868 42.5139 41.7118C42.273 41.828 41.9965 41.9441 41.6931 42.0513C41.3898 42.1586 41.0507 42.2568 40.6849 42.3462L39.0611 42.7571L37.7585 37.1376L39.2574 36.7623C39.5786 36.6819 39.873 36.6194 40.1585 36.5747C40.444 36.53 40.7028 36.5032 40.9526 36.4943C41.2024 36.4854 41.4254 36.4943 41.6396 36.5211C41.8537 36.5479 42.05 36.5926 42.2195 36.6551C42.3979 36.7176 42.5585 36.807 42.7102 36.9142C42.8619 37.0214 43.0046 37.1554 43.1295 37.3162C43.2544 37.4771 43.3794 37.6557 43.4775 37.8612C43.5846 38.0667 43.6738 38.3079 43.763 38.567C43.8433 38.8172 43.8968 39.0584 43.9325 39.2818C43.9593 39.4962 43.9682 39.7106 43.9593 39.9071Z" fill="white"/>
<rect x="0.5" y="0.5" width="79" height="79" stroke="url(#paint2_linear_186_91)"/>
</g>
<defs>
<filter id="filter0_b_186_91" x="-50" y="-50" width="180" height="180" filterUnits="userSpaceOnUse" color-interpolation-filters="sRGB">
<feFlood flood-opacity="0" result="BackgroundImageFix"/>
<feGaussianBlur in="BackgroundImage" stdDeviation="25"/>
<feComposite in2="SourceAlpha" operator="in" result="effect1_backgroundBlur_186_91"/>
<feBlend mode="normal" in="SourceGraphic" in2="effect1_backgroundBlur_186_91" result="shape"/>
</filter>
<linearGradient id="paint0_linear_186_91" x1="40" y1="0" x2="40" y2="80" gradientUnits="userSpaceOnUse">
<stop stop-color="#48FFDE" stop-opacity="0.17"/>
<stop offset="0.458333" stop-color="#0FD4FF" stop-opacity="0.15"/>
<stop offset="1" stop-color="#96ECFF" stop-opacity="0.48"/>
</linearGradient>
<linearGradient id="paint1_linear_186_91" x1="40.002" y1="10.0078" x2="45.7774" y2="67.7492" gradientUnits="userSpaceOnUse">
<stop stop-color="#64CCC9"/>
<stop offset="1" stop-color="#00A3E0"/>
<stop offset="1" stop-color="#00A3E0"/>
</linearGradient>
<linearGradient id="paint2_linear_186_91" x1="40" y1="0" x2="40" y2="80" gradientUnits="userSpaceOnUse">
<stop stop-color="white"/>
<stop offset="1" stop-color="white" stop-opacity="0"/>
</linearGradient>
</defs>
</svg>
