<svg width="602" height="100" viewBox="0 0 602 100" fill="none" xmlns="http://www.w3.org/2000/svg">
<g style="mix-blend-mode:overlay" opacity="0.5">
<path fill-rule="evenodd" clip-rule="evenodd" d="M226.687 1.39599e-05L232.937 0L175.125 100L168.875 99.9999L226.687 1.39599e-05ZM64.1874 1.90735e-06L57.9374 1.43444e-05L0.124939 99.9999L6.37494 100L64.1874 1.90735e-06ZM78.2499 1.90735e-06L71.9999 1.43444e-05L14.1874 99.9999L20.4374 100L78.2499 1.90735e-06ZM86.0624 1.43444e-05L92.3124 1.90735e-06L34.4999 100L28.2499 99.9999L86.0624 1.43444e-05ZM106.375 1.90735e-06L100.125 1.43444e-05L42.3124 99.9999L48.5624 100L106.375 1.90735e-06ZM114.187 1.43444e-05L120.437 1.90735e-06L62.6249 100L56.3749 99.9999L114.187 1.43444e-05ZM134.5 1.90735e-06L128.25 1.43444e-05L70.4374 99.9999L76.6874 100L134.5 1.90735e-06ZM142.312 1.43444e-05L148.562 1.90735e-06L90.7499 100L84.4999 99.9999L142.312 1.43444e-05ZM162.625 1.90735e-06L156.375 1.43444e-05L98.5624 99.9999L104.812 100L162.625 1.90735e-06ZM170.437 1.43444e-05L176.687 1.90735e-06L118.875 100L112.625 99.9999L170.437 1.43444e-05ZM190.75 1.90735e-06L184.5 1.43444e-05L126.687 99.9999L132.937 100L190.75 1.90735e-06ZM198.562 1.43444e-05L204.812 1.90735e-06L147 100L140.75 99.9999L198.562 1.43444e-05ZM218.875 1.90735e-06L212.625 1.43444e-05L154.812 99.9999L161.062 100L218.875 1.90735e-06ZM247 0L240.75 1.39599e-05L182.937 99.9999L189.187 100L247 0ZM254.812 1.4729e-05L261.062 2.88721e-06L203.25 100L197 99.9999L254.812 1.4729e-05ZM275.125 2.88721e-06L268.875 1.4729e-05L211.062 99.9999L217.312 100L275.125 2.88721e-06ZM282.937 1.43444e-05L289.187 1.90735e-06L231.375 100L225.125 99.9999L282.937 1.43444e-05ZM303.25 1.90735e-06L297 1.43444e-05L239.187 99.9999L245.437 100L303.25 1.90735e-06ZM311.062 1.43444e-05L317.312 1.90735e-06L259.5 100L253.25 99.9999L311.062 1.43444e-05ZM331.375 1.90735e-06L325.125 1.43444e-05L267.312 99.9999L273.562 100L331.375 1.90735e-06ZM339.187 1.43444e-05L345.437 1.90735e-06L287.625 100L281.375 99.9999L339.187 1.43444e-05ZM359.5 1.90735e-06L353.25 1.43444e-05L295.437 99.9999L301.687 100L359.5 1.90735e-06ZM367.312 1.43484e-05L373.562 2.23397e-06L315.75 100L309.5 99.9999L367.312 1.43484e-05ZM387.625 1.90735e-06L381.375 1.43444e-05L323.562 99.9999L329.812 100L387.625 1.90735e-06ZM395.438 1.43444e-05L401.688 1.90735e-06L343.875 100L337.625 99.9999L395.438 1.43444e-05ZM415.75 1.90735e-06L409.5 1.43444e-05L351.688 99.9999L357.938 100L415.75 1.90735e-06ZM423.562 1.43444e-05L429.812 1.90735e-06L372 100L365.75 99.9999L423.562 1.43444e-05ZM443.875 1.90735e-06L437.625 1.43444e-05L379.813 99.9999L386.063 100L443.875 1.90735e-06ZM451.688 1.43444e-05L457.938 1.90735e-06L400.125 100L393.875 99.9999L451.688 1.43444e-05ZM472 1.90735e-06L465.75 1.43444e-05L407.938 99.9999L414.188 100L472 1.90735e-06ZM479.813 1.43444e-05L486.063 1.90735e-06L428.25 100L422 99.9999L479.813 1.43444e-05ZM500.125 1.90735e-06L493.875 1.43444e-05L436.063 99.9999L442.313 100L500.125 1.90735e-06ZM507.938 1.43444e-05L514.188 1.90735e-06L456.375 100L450.125 99.9999L507.938 1.43444e-05ZM528.25 1.90735e-06L522 1.43444e-05L464.188 99.9999L470.438 100L528.25 1.90735e-06ZM536.062 1.43444e-05L542.312 1.90735e-06L484.5 100L478.25 99.9999L536.062 1.43444e-05ZM556.375 1.90735e-06L550.125 1.43444e-05L492.313 99.9999L498.563 100L556.375 1.90735e-06ZM564.188 1.43444e-05L570.438 1.90735e-06L512.625 100L506.375 99.9999L564.188 1.43444e-05ZM584.5 1.90735e-06L578.25 1.43444e-05L520.438 99.9999L526.688 100L584.5 1.90735e-06ZM592.312 1.43444e-05L598.562 1.90735e-06L540.75 100L534.5 99.9999L592.312 1.43444e-05ZM612.625 1.90735e-06L606.375 1.43444e-05L548.562 99.9999L554.813 100L612.625 1.90735e-06ZM620.438 1.43444e-05L626.688 1.90735e-06L568.875 100L562.625 99.9999L620.438 1.43444e-05ZM640.75 1.90735e-06L634.5 1.43444e-05L576.688 99.9999L582.938 100L640.75 1.90735e-06ZM648.562 1.43444e-05L654.812 1.90735e-06L597 100L590.75 99.9999L648.562 1.43444e-05ZM668.875 4.52031e-06L662.625 1.51215e-05L604.812 100L611.062 100L668.875 4.52031e-06ZM676.687 1.51215e-05L682.937 4.52031e-06L625.125 100L618.875 100L676.687 1.51215e-05ZM697 4.52031e-06L690.75 1.51215e-05L632.938 100L639.188 100L697 4.52031e-06ZM704.812 1.51215e-05L711.062 4.52031e-06L653.25 100L647 100L704.812 1.51215e-05ZM725.125 4.52031e-06L718.875 1.51215e-05L661.062 100L667.312 100L725.125 4.52031e-06ZM732.937 1.35754e-05L739.187 0L681.375 100L675.125 99.9999L732.937 1.35754e-05ZM753.25 0L747 1.35754e-05L689.187 99.9999L695.437 100L753.25 0ZM761.062 1.35754e-05L767.312 0L709.5 100L703.25 99.9999L761.062 1.35754e-05ZM781.375 0L775.125 1.35754e-05L717.312 99.9999L723.562 100L781.375 0ZM789.187 1.35754e-05L795.437 0L737.625 100L731.375 99.9999L789.187 1.35754e-05ZM809.5 1.90735e-06L803.25 1.43444e-05L745.438 99.9999L751.688 100L809.5 1.90735e-06ZM817.312 1.43444e-05L823.562 1.90735e-06L765.75 100L759.5 99.9999L817.312 1.43444e-05ZM837.625 1.90735e-06L831.375 1.43444e-05L773.562 99.9999L779.813 100L837.625 1.90735e-06ZM845.438 1.43444e-05L851.688 1.90735e-06L793.875 100L787.625 99.9999L845.438 1.43444e-05ZM865.75 1.90735e-06L859.5 1.43444e-05L801.688 99.9999L807.938 100L865.75 1.90735e-06ZM873.562 1.43444e-05L879.812 1.90735e-06L822 100L815.75 99.9999L873.562 1.43444e-05ZM893.875 1.90735e-06L887.625 1.43444e-05L829.812 99.9999L836.063 100L893.875 1.90735e-06Z" fill="url(#paint0_linear_3_273)"/>
</g>
<defs>
<linearGradient id="paint0_linear_3_273" x1="811" y1="100" x2="-37.5" y2="100" gradientUnits="userSpaceOnUse">
<stop stop-color="white"/>
<stop offset="1" stop-color="white" stop-opacity="0"/>
</linearGradient>
</defs>
</svg>
